<svg width="76" height="74" viewBox="0 0 76 74" fill="none" xmlns="http://www.w3.org/2000/svg">
<path d="M26.6585 56.6138H23.9576V73.8913H26.6585V56.6138Z" fill="white"/>
<path d="M32.2743 56.6138H29.5734V73.8913H32.2743V56.6138Z" fill="white"/>
<path d="M21.2567 65.8502C21.2032 63.4596 19.3045 61.558 16.9513 61.558C14.6515 61.558 12.7796 63.4053 12.6459 65.7959C12.6459 65.8502 12.6191 66.0132 12.6459 66.1491C12.6191 67.2629 12.6459 69.1101 12.6459 69.1101C12.6459 69.1101 12.6459 69.6806 12.6459 69.7078C12.6726 72.2071 14.1969 74 16.3095 73.9457C17.2989 73.9185 18.1012 73.348 18.636 72.9134C18.7162 72.8319 18.743 72.8862 18.743 72.9405C18.743 72.9949 18.8767 73.9457 18.8767 73.9457H21.2567V67.5888C21.2834 67.0999 21.2567 65.8502 21.2567 65.8502ZM18.6627 69.5176C18.6627 69.5176 18.6627 69.7621 18.6093 69.9794C18.4221 70.7401 17.7535 71.3106 16.9513 71.3106C16.149 71.3106 15.534 70.8488 15.32 70.1153C15.2398 69.7893 15.2398 69.5448 15.2398 69.5448C15.2398 69.5176 15.1863 67.6432 15.2398 66.0404C15.2665 65.7687 15.2665 65.6329 15.2933 65.6057C15.4805 64.7908 16.149 64.2203 16.9513 64.2203C17.7535 64.2203 18.4221 64.7908 18.6093 65.5242C18.636 65.6329 18.6627 65.7959 18.6627 66.0132V69.5176Z" fill="white"/>
<path d="M70.3813 56.6138H67.6804V73.8913H70.3813V56.6138Z" fill="white"/>
<path d="M75.997 56.6138H73.2961V73.8913H75.997V56.6138Z" fill="white"/>
<path d="M64.9795 65.8502C64.926 63.4596 63.0273 61.558 60.674 61.558C58.3742 61.558 56.5023 63.4053 56.3686 65.7959C56.3686 65.8502 56.3686 66.0132 56.3686 66.1491C56.3419 67.2629 56.3686 69.1101 56.3686 69.1101C56.3686 69.1101 56.3686 69.6806 56.3686 69.7078C56.3953 72.2071 57.9196 74 60.0322 73.9457C61.0217 73.9185 61.8239 73.348 62.3588 72.9134C62.439 72.8319 62.4657 72.8862 62.4657 72.9405C62.4657 72.9949 62.5994 73.9457 62.5994 73.9457H64.9795V67.5888C65.0062 67.0999 64.9795 65.8502 64.9795 65.8502ZM62.3855 69.5176C62.3855 69.5176 62.3855 69.7621 62.332 69.9794C62.1448 70.7401 61.4763 71.3106 60.674 71.3106C59.8718 71.3106 59.2567 70.8488 59.0428 70.1153C58.9626 69.7893 58.9626 69.5448 58.9626 69.5448C58.9626 69.5176 58.9091 67.6432 58.9626 66.0404C58.9893 65.7687 58.9893 65.6329 59.016 65.6057C59.2032 64.7908 59.8718 64.2203 60.674 64.2203C61.4763 64.2203 62.1448 64.7908 62.332 65.5242C62.3588 65.6329 62.3855 65.7959 62.3855 66.0132V69.5176Z" fill="white"/>
<path d="M39.3876 68.6755L38.3714 69.5448L39.4411 70.8488C39.0934 71.1204 38.6121 71.2562 38.1842 71.2562C37.3018 71.2562 36.4995 70.5771 36.4995 69.572C36.4995 69.0558 36.7402 68.6211 37.2215 68.2952C37.5157 68.105 37.9168 67.9692 38.3982 67.8877C39.8422 67.6432 40.6177 66.6109 40.6177 65.3884C40.6177 64.0029 39.5213 62.8891 38.1575 62.8891C36.7937 62.8891 35.6972 64.0029 35.6972 65.3884C35.6972 66.2034 36.0449 66.8282 36.4995 67.2085C35.6705 67.7247 35.1089 68.5668 35.1089 69.572C35.1089 71.3106 36.2856 72.5874 38.1307 72.5874C38.9865 72.5874 39.7352 72.2342 40.2433 71.8267L40.8851 72.5874L41.9013 71.7181L39.3876 68.6755ZM41.9281 71.7181L39.3876 68.6755L41.9281 71.7181ZM38.1842 64.1931C38.7993 64.1931 39.3074 64.7092 39.3074 65.3341C39.3074 65.9589 38.7993 66.475 38.1842 66.475C37.5692 66.475 37.0611 65.9589 37.0611 65.3341C37.0343 64.7092 37.5424 64.1931 38.1842 64.1931Z" fill="#EE7300"/>
<path d="M10.2391 64.2746H5.13144V67.0183H7.51145C7.48471 68.0778 7.48471 68.8385 7.48471 68.8385C7.48471 70.1696 6.41504 71.2291 5.13144 71.2291C4.00829 71.2291 3.07233 70.4413 2.83165 69.3546C2.83165 69.3275 2.80491 69.1373 2.77817 69.0558C2.77817 68.9471 2.75143 68.757 2.75143 68.7298C2.75143 68.1865 2.6712 64.6277 2.75143 61.9112C2.75143 61.6938 2.80491 61.395 2.80491 61.3678C3.01884 60.1997 3.9548 59.3032 5.13144 59.3032C6.3883 59.3032 7.43123 60.3627 7.48471 61.6938H10.2124C10.1589 58.7871 7.88584 56.5323 5.13144 56.5323C2.37704 56.5323 0.157479 58.7871 0.0505122 61.6395C0.0505122 61.6395 0.0237704 62.0198 0.0237704 62.2643C0.0237704 62.2643 0.0237704 62.2643 0.0237704 62.2915C-0.029713 64.8451 0.0237704 67.8062 0.0237704 68.6211C0.0505122 68.7298 0.0772539 69.2731 0.0772539 69.2731C0.291188 71.9082 2.48401 74 5.13144 74C7.91258 74 10.2124 71.6909 10.2124 68.8385C10.2124 68.8385 10.2659 66.6652 10.2391 64.2746Z" fill="white"/>
<path d="M53.9619 64.2746H48.8542V67.0183H51.2342C51.2342 68.0778 51.2074 68.8385 51.2074 68.8385C51.2074 70.1696 50.1378 71.2291 48.8542 71.2291C47.731 71.2291 46.7951 70.4413 46.5544 69.3546C46.5544 69.3275 46.5276 69.1373 46.5009 69.0558C46.5009 68.9471 46.4742 68.757 46.4742 68.7298C46.4742 68.1865 46.3939 64.6277 46.4742 61.9112C46.4742 61.6938 46.5276 61.395 46.5276 61.3678C46.7416 60.1997 47.6775 59.3032 48.8542 59.3032C50.111 59.3032 51.154 60.3627 51.2074 61.6938H53.9084C53.8549 58.7871 51.5818 56.5323 48.8274 56.5323C46.073 56.5323 43.8535 58.7871 43.7465 61.6395C43.7465 61.6395 43.7198 62.0198 43.7198 62.2643C43.7198 62.2643 43.7198 62.2643 43.7198 62.2915C43.6663 64.8451 43.7198 67.8062 43.7198 68.6211C43.693 68.7026 43.7465 69.2188 43.7465 69.246C43.9604 71.881 46.1533 73.9728 48.8007 73.9728C51.6086 73.9728 53.8816 71.6637 53.8816 68.8113C53.9351 68.8385 53.9886 66.6652 53.9619 64.2746Z" fill="white"/>
<path d="M38.1307 34.4192H42.8907V39.2004C42.8907 40.1512 42.1152 40.9391 41.1793 40.9391H35.0822C34.1462 40.9391 33.3707 40.1512 33.3707 39.2004C33.3707 39.2004 33.3707 27.7364 33.3707 23.1182C33.3707 19.2606 35.9379 20.0213 35.9379 16.8429V9.12775C35.9379 8.80176 36.2053 8.55727 36.4995 8.55727H39.7085C40.0294 8.55727 40.2701 8.82893 40.2701 9.12775V16.8429C40.2701 19.8583 42.5164 19.3421 42.8105 22.4662H52.7584C52.6247 12.279 51.662 7.11747 47.8112 3.36858C45.9393 1.54846 42.5164 0 38.1307 0C33.7451 0 30.3221 1.54846 28.4235 3.39574C24.1983 7.47063 23.4495 13.2841 23.4495 25.4545C23.4495 37.652 24.1983 43.4383 28.4235 47.5404C30.3221 49.3877 33.7451 50.9361 38.1307 50.9361C42.5164 50.9361 45.9393 49.3877 47.838 47.5404C51.7155 43.7915 52.7852 37.652 52.7852 26.0521H38.1307V34.4192Z" fill="#EE7300"/>
</svg>
